C1	2.02	15.49	90.00	1u	C0603
C2	3.87	6.10	270.00	1u	C0603
C3	11.41	7.75	270.00	1u	C0603
D1	2.67	20.94	270.00	Blue	CHIP-LED0603
D2	7.75	9.78	180.00	SM5817PL-TP	SODFL3516X135N
J1	7.62	2.54	0.00	NIM-DAP-SMD-100MIL	NIM-DAP-SMD-100MIL
J10	13.08	6.35	90.00	M	PAD-SMD-40X50MIL
J11	13.08	7.62	90.00	S	PAD-SMD-40X50MIL
J2	2.54	24.13	0.00	+	PAD-SMD-75X100MIL
J3	5.08	24.13	0.00	-	PAD-SMD-75X100MIL
J4	10.16	24.13	0.00	J	PAD-SMD-75X100MIL
J5	7.62	24.13	0.00	U	PAD-SMD-75X100MIL
J6	12.70	24.13	0.00	V	PAD-SMD-75X100MIL
J7	2.79	8.89	270.00	5	PAD-SMD-75X100MIL
J8	13.08	8.92	270.00	X	PAD-SMD-40X50MIL
J9	13.08	10.16	90.00	Y	PAD-SMD-40X50MIL
R1	2.07	18.84	90.00	1.5k	R0603
U$4	2.02	6.43	0.00	FIDUCIAL	FIDUCIAL_1MM
U$5	13.27	20.32	0.00	FIDUCIAL	FIDUCIAL_1MM
U1	8.85	15.89	90.00	ATSAMD21E18A-AUT	QFP80P900X900X120-32N
U2	7.07	6.93	0.00	AP2112K-3.3TRG1	SOT95P275X114-5N
