G04 EAGLE Gerber RS-274X export*
G75*
%MOMM*%
%FSLAX34Y34*%
%LPD*%
%INSolderpaste Top*%
%IPPOS*%
%AMOC8*
5,1,8,0,0,1.08239X$1,22.5*%
G01*
G04 Define Apertures*
%ADD10R,0.550000X1.472200*%
%ADD11R,1.472200X0.550000*%
%ADD12R,1.000000X1.100000*%
%ADD13R,1.905000X2.540000*%
%ADD14R,1.100000X1.000000*%
%ADD15R,0.800000X0.800000*%
%ADD16R,2.540000X1.905000*%
%ADD17R,1.180800X0.530400*%
%ADD18R,1.270000X1.016000*%
%ADD19R,1.037600X1.031500*%
D10*
X60547Y117216D03*
X68547Y117216D03*
X76547Y117216D03*
X84547Y117216D03*
X92547Y117216D03*
X100547Y117216D03*
X108547Y117216D03*
X116547Y117216D03*
D11*
X130269Y130938D03*
X130269Y138938D03*
X130269Y146938D03*
X130269Y154938D03*
X130269Y162938D03*
X130269Y170938D03*
X130269Y178938D03*
X130269Y186938D03*
D10*
X116547Y200660D03*
X108547Y200660D03*
X100547Y200660D03*
X92547Y200660D03*
X84547Y200660D03*
X76547Y200660D03*
X68547Y200660D03*
X60547Y200660D03*
D11*
X46825Y186938D03*
X46825Y178938D03*
X46825Y170938D03*
X46825Y162938D03*
X46825Y154938D03*
X46825Y146938D03*
X46825Y138938D03*
X46825Y130938D03*
D12*
X20240Y146440D03*
X20240Y163440D03*
D13*
X25400Y241300D03*
X50800Y241300D03*
X101600Y241300D03*
X76200Y241300D03*
X127000Y241300D03*
D14*
X20740Y179930D03*
X20740Y196930D03*
D15*
X34240Y209360D03*
X19240Y209360D03*
D13*
X25400Y25400D03*
X101600Y25400D03*
X76200Y25400D03*
X50800Y25400D03*
X127000Y25400D03*
D16*
X27940Y88900D03*
D17*
X58822Y78802D03*
X58822Y69302D03*
X58822Y59802D03*
X82550Y59802D03*
X82550Y78802D03*
D12*
X38696Y69490D03*
X38696Y52490D03*
X114126Y85970D03*
X114126Y68970D03*
D18*
X130810Y89154D03*
X130810Y101600D03*
X130810Y63500D03*
X130810Y76200D03*
D19*
X92865Y97790D03*
X62075Y97790D03*
M02*
